{
    "openapi": "3.0.0",
    "info": {
        "title": "L5 OpenApi",
        "description": "L5 Swagger OpenApi description",
        "contact": {
            "email": "gregorio.chisan@gmail.com"
        },
        "license": {
            "name": "Apache 2.0",
            "url": "https://www.apache.org/licenses/LICENSE-2.0.html"
        },
        "version": "1.0.0",
        "x-logo": {
            "url": "https://via.placeholder.com/190x90.png?text=L5-Swagger"
        }
    },
    "paths": {
        "generar-rol/{employee}": {
            "get": {
                "tags": [
                    "Pantalla creación rol de pagos"
                ],
                "summary": "Mostrar creación de rol",
                "description": "Muestra una vista para crear un rol de pagos.",
                "operationId": "258aa7eccc4e1d58932e9227021218b6",
                "parameters": [
                    {
                        "name": "employee",
                        "in": "path",
                        "description": "Parámetro necesario para creación de rol de pagos",
                        "required": true,
                        "schema": {
                            "type": "object"
                        }
                    }
                ],
                "responses": {
                    "200": {
                        "description": "Mostrar creación de rol de pagos."
                    }
                }
            }
        },
        "guardar-rol/{employee}": {
            "get": {
                "tags": [
                    "Guardar rol de pagos"
                ],
                "summary": "Permite guardar un rol de pagos",
                "description": "Permite guardar un rol de pagos.",
                "operationId": "330deff72a70685d035ceff8cec3bd4f",
                "parameters": [
                    {
                        "name": "employee",
                        "in": "path",
                        "description": "Parámetro necesario para guardar un rol de pagos",
                        "required": true,
                        "schema": {
                            "type": "object"
                        }
                    }
                ],
                "responses": {
                    "200": {
                        "description": "Guarda un rol de pagos"
                    }
                }
            }
        }
    }
}